{
  "type": "service_account",
  "project_id": "chrome-pointer-399807",
  "private_key_id": "0d604361195ce4cb826304a5799d8cb9c4e78155",
  "private_key": "-----BEGIN PRIVATE KEY-----\nMIIEvAIBADANBgkqhkiG9w0BAQEFAASCBKYwggSiAgEAAoIBAQDNpeDZtXFJoSRk\nHEZdLFOQnJS/1ZzxUxFdREeZ88yAH5n/dei3z05ffxPt7cHOeDkX8S8IeAaf8aqC\nl0TLeegsYkW1N/jK5f7RC/JFWV7QwrKH/ey31nyyyvl+dZ6BazdUAUAHPL9MjgIn\nkEnijLspUd4jPc3lJ0bRtcIB5Eb9f7EgW72cZWjVoQZR375LP7bVaVpLbiEZGKl+\no01sRWfCp74YlrCy2iyG9ckX0n6JVkOa5ryfev5yVN5WtD+7+kW7WSkxxmq2Jynb\nPAgRkg1c8WPyTKYFizKtGKlPksGiEYT5ihHzhS6GvDHkvV0LAwyoJAwqQWQYfLiN\nLMp3EBz5AgMBAAECggEAX5rygcQ8usJTrMcIX2CwKNbiwJyKrha0R+vqbcROGnKW\noZErc+jIwtTNaxvRsi9qO5tBBmrmiY1MfBHfRcmTCq9VQP6Yh5uNb5piM6Ns1Rju\n7xI57u2kY2rBuuzrl7dEraU3IyY2uVx72/DUqKJMkNUitLeS9SnhXrVlUIPUDR1u\np+ZJe8wdmhUWEBN7gKvJM89aJtIRBLxHhoKlRJUvNHaTPZBlY7jcTx6J09FMMFib\nY5CR0pPEZ4+GbjJhxKPI65m+PpEGNPfs06hGeISHl8PhjqTfZMw0CQIl0zM0Ooev\nG1g0kRSr9+xgXLC4DNmoEStAGh6Xm89il+QHeLOGkQKBgQDwEepFSx26rrOsrDvR\nPbza3Y0ETy+D/ly/99YCdmKnZx8QyKzHk4xrtXgR70+1w75P/dXKS8vO/N5LND/G\ne6GKo5hZCnOm8mm6tmDSXmEiobHfRG4xmO6SDHbCf9S+zTz8wVUoXlZ2e3nzjaYF\n5uNzT3VrQoPqyTPal5JQjXuSswKBgQDbSzvrT2Jr20jD+es2219aNQZDctC/QuLL\nsSGNchWJU2Kzh1aLN7f1HTjPGghhTzdCuk5wgJsyUj3TcqOpODvY+fQEjCgTIeUC\nsO3yGwSNVFd4bJ0I0+VRGStwh60Cew+rlZyqDQWbM9JsgpJ6SHDB0lGnv/3asEFR\ng2lYXU33owKBgEAERvhbY34YgAkXlIvjbqzeT3BKvVzxQ0JdkE/vybbiJMKRAKHn\nkpZWOcJukk7h96nVAmGDfMGhZJWhRTBkX1tc7I8x3k0yb0c+wurWCAj4HTpwQQIw\nyc1gTXroI48No6my1EaDgYLuwkJUD2WbgCOLmMAVaJ//LzinGnkogT9JAoGAUYIC\nMHEeLOahgi4XLhmVtGq2/ETlr+FFeN5KkU9RD+zNZ9sq4K4CEvocjmWnrbuK16N1\n2j0C8k49KqWWjSQYoootF6+ciZf0je6DUpSWOY2awWjlaU2RE3aefcIAHUbuSSFf\nzJjwd4JoeOqDVS4tsuzgatBio3EVph2I/04W168CgYAjK6yRAXSRYTtfPKhg3+Wb\nNpT1nDWL7wdak3AZ6Vh+N6dNUbFupJKQimx3fQkJAszHVCfE1iM4lNKPSi5TEklz\nniwlPxwo1eN18mhfnv4E+/mk89Aqexv1UBgV8A/OCebL2xj34FueJA3xklLbtHC/\nK3VsVu28oH8J49qgDLeN+A==\n-----END PRIVATE KEY-----\n",
  "client_email": "google-sheet-api@chrome-pointer-399807.iam.gserviceaccount.com",
  "client_id": "113576629835831704860",
  "auth_uri": "https://accounts.google.com/o/oauth2/auth",
  "token_uri": "https://oauth2.googleapis.com/token",
  "auth_provider_x509_cert_url": "https://www.googleapis.com/oauth2/v1/certs",
  "client_x509_cert_url": "https://www.googleapis.com/robot/v1/metadata/x509/google-sheet-api%40chrome-pointer-399807.iam.gserviceaccount.com",
  "universe_domain": "googleapis.com"
}
